-------------------------------------------------------------------------------
Test set: TestCollections.TestCollectionsDemo
-------------------------------------------------------------------------------
Tests run: 9, Failures: 0, Errors: 0, Skipped: 0, Time elapsed: 0.551 sec
